{
  "CompanyName": "newPSG",
  "ProjectName": "PMS",
  "ProjectType": "Angular",
  "ProjectVersion": "v8.7.0",
  "ApplicationAreaName": "App",
  "LicenseCode": "00+ubiN4QYmtsxyIkCStKZMw==f5434454c91ad04403cf3b4ee6bce5b0",
  "AngularSrcPath": "\\..\\..\\angular\\src\\",
  "AngularMergedSrcPath": "\\..\\src\\{{Namespace_Here}}.Web.Host\\src\\",
  "CoreSrcPath": "\\..\\src\\",
  "FileLocations": {
    "DbContext": "{{Namespace_Here}}.EntityFrameworkCore\\EntityFrameworkCore\\{{Project_Name_Here}}DbContext.cs",
    "CustomDtoMapper": "{{Namespace_Here}}.Application\\CustomDtoMapper.cs",
    "AppAuthorizationProvider": "{{Namespace_Here}}.Core\\Authorization\\AppAuthorizationProvider.cs",
    "EntityHistoryHelper": "{{Namespace_Here}}.Core\\EntityHistory\\EntityHistoryHelper.cs",
    "AppPermissions": "{{Namespace_Here}}.Core\\Authorization\\AppPermissions.cs",
    "LocalizationFile": "{{Namespace_Here}}.Core\\Localization\\{{Project_Name_Here}}\\{{Project_Name_Here}}.xml",
    "EntityFrameWorkProjectFolder": "{{Namespace_Here}}.EntityFrameworkCore",
    "Mvc": {
      "AppNavigationProvider": "{{Namespace_Here}}.Web.Mvc\\Areas\\{{App_Area_Name_Here}}\\Startup\\{{App_Area_Name_Here}}NavigationProvider.cs",
      "AppPageNames": "{{Namespace_Here}}.Web.Mvc\\Areas\\{{App_Area_Name_Here}}\\Startup\\{{App_Area_Name_Here}}PageNames.cs",
      "BundleConfig": "{{Namespace_Here}}.Web.Mvc\\bundles.json"
    },
    "Angular": {
      "AppNavigationService": "app\\shared\\layout\\nav\\app-navigation.service.ts",
      "ServiceProxies": "shared\\service-proxies\\service-proxy.module.ts",
      "Module": "app\\{{menu_Position_Here}}\\{{menu_Position_Here}}.module.ts",
      "RoutingModule": "app\\{{menu_Position_Here}}\\{{menu_Position_Here}}-routing.module.ts"
    }
  }
}